<?xml version="1.0" encoding="UTF-8" standalone="no"?>
<!-- Created with Inkscape (http://www.inkscape.org/) -->

<svg
   xmlns:dc="http://purl.org/dc/elements/1.1/"
   xmlns:cc="http://creativecommons.org/ns#"
   xmlns:rdf="http://www.w3.org/1999/02/22-rdf-syntax-ns#"
   xmlns:svg="http://www.w3.org/2000/svg"
   xmlns="http://www.w3.org/2000/svg"
   xmlns:sodipodi="http://sodipodi.sourceforge.net/DTD/sodipodi-0.dtd"
   xmlns:inkscape="http://www.inkscape.org/namespaces/inkscape"
   width="64px"
   height="64px"
   id="svg2829"
   version="1.1"
   inkscape:version="0.47pre4 r22446"
   sodipodi:docname="paccman-icon.svg"
   inkscape:export-filename="/home/joaof/Données/Devel/Projets/paccman/src/main/paccman-ui/src/com/moonstice/paccman/ui/resources/icons/paccman-icon.png"
   inkscape:export-xdpi="90"
   inkscape:export-ydpi="90">
  <defs
     id="defs2831">
    <inkscape:perspective
       sodipodi:type="inkscape:persp3d"
       inkscape:vp_x="0 : 32 : 1"
       inkscape:vp_y="0 : 1000 : 0"
       inkscape:vp_z="64 : 32 : 1"
       inkscape:persp3d-origin="32 : 21.333333 : 1"
       id="perspective2837" />
  </defs>
  <sodipodi:namedview
     id="base"
     pagecolor="#ffffff"
     bordercolor="#666666"
     borderopacity="1.0"
     inkscape:pageopacity="0.0"
     inkscape:pageshadow="2"
     inkscape:zoom="5.5"
     inkscape:cx="-4.0909091"
     inkscape:cy="32"
     inkscape:current-layer="layer1"
     showgrid="true"
     inkscape:document-units="px"
     inkscape:grid-bbox="true"
     inkscape:window-width="1400"
     inkscape:window-height="969"
     inkscape:window-x="0"
     inkscape:window-y="29"
     inkscape:window-maximized="1" />
  <metadata
     id="metadata2834">
    <rdf:RDF>
      <cc:Work
         rdf:about="">
        <dc:format>image/svg+xml</dc:format>
        <dc:type
           rdf:resource="http://purl.org/dc/dcmitype/StillImage" />
        <dc:title></dc:title>
      </cc:Work>
    </rdf:RDF>
  </metadata>
  <g
     id="layer1"
     inkscape:label="Layer 1"
     inkscape:groupmode="layer">
    <path
       sodipodi:type="arc"
       style="fill:#a1a1e5;fill-opacity:1;stroke:none"
       id="path3659"
       sodipodi:cx="32.909092"
       sodipodi:cy="33.81818"
       sodipodi:rx="24.545454"
       sodipodi:ry="24.545454"
       d="m 57.454546,33.81818 a 24.545454,24.545454 0 1 1 -49.0909081,0 24.545454,24.545454 0 1 1 49.0909081,0 z"
       transform="matrix(1.1296296,0,0,1.1296296,-4.3569028,-5.9292946)" />
    <text
       xml:space="preserve"
       style="font-size:57.29103469999999731px;font-style:normal;font-variant:normal;font-weight:bold;font-stretch:normal;fill:#25bd22;fill-opacity:1;stroke:#000000;font-family:msbm10;-inkscape-font-specification:msbm10 Medium;stroke-opacity:1"
       x="-16.111427"
       y="66.424011"
       id="text2839"
       transform="matrix(0.78025766,-0.62545822,0.62545822,0.78025766,0,0)"><tspan
         sodipodi:role="line"
         id="tspan2841"
         x="-16.111427"
         y="66.424011">€</tspan></text>
  </g>
</svg>
