<?xml version="1.0" encoding="UTF-8" standalone="no"?>
<!-- Created with Inkscape (http://www.inkscape.org/) -->

<svg
   xmlns:dc="http://purl.org/dc/elements/1.1/"
   xmlns:cc="http://creativecommons.org/ns#"
   xmlns:rdf="http://www.w3.org/1999/02/22-rdf-syntax-ns#"
   xmlns:svg="http://www.w3.org/2000/svg"
   xmlns="http://www.w3.org/2000/svg"
   xmlns:xlink="http://www.w3.org/1999/xlink"
   xmlns:sodipodi="http://sodipodi.sourceforge.net/DTD/sodipodi-0.dtd"
   xmlns:inkscape="http://www.inkscape.org/namespaces/inkscape"
   width="64px"
   height="64px"
   id="svg2835"
   version="1.1"
   inkscape:version="0.47 r22583"
   sodipodi:docname="reconciliation_pending.svg">
  <defs
     id="defs2837">
    <linearGradient
       id="linearGradient3619">
      <stop
         style="stop-color:#ff9000;stop-opacity:0.19607843;"
         offset="0"
         id="stop3621" />
      <stop
         style="stop-color:#ff9000;stop-opacity:1;"
         offset="1"
         id="stop3623" />
    </linearGradient>
    <inkscape:perspective
       sodipodi:type="inkscape:persp3d"
       inkscape:vp_x="0 : 32 : 1"
       inkscape:vp_y="0 : 1000 : 0"
       inkscape:vp_z="64 : 32 : 1"
       inkscape:persp3d-origin="32 : 21.333333 : 1"
       id="perspective2843" />
    <radialGradient
       inkscape:collect="always"
       xlink:href="#linearGradient3619"
       id="radialGradient5083"
       cx="23.557024"
       cy="23.507769"
       fx="23.557024"
       fy="23.507769"
       r="26.90909"
       gradientTransform="matrix(0.93005562,1.5137819,-1.604074,0.9136425,39.355883,-33.324669)"
       gradientUnits="userSpaceOnUse" />
  </defs>
  <sodipodi:namedview
     id="base"
     pagecolor="#ffffff"
     bordercolor="#666666"
     borderopacity="1.0"
     inkscape:pageopacity="0.0"
     inkscape:pageshadow="2"
     inkscape:zoom="5.5"
     inkscape:cx="2.9090909"
     inkscape:cy="32"
     inkscape:current-layer="layer1"
     showgrid="true"
     inkscape:document-units="px"
     inkscape:grid-bbox="true"
     inkscape:window-width="1280"
     inkscape:window-height="968"
     inkscape:window-x="-4"
     inkscape:window-y="-4"
     inkscape:window-maximized="1" />
  <metadata
     id="metadata2840">
    <rdf:RDF>
      <cc:Work
         rdf:about="">
        <dc:format>image/svg+xml</dc:format>
        <dc:type
           rdf:resource="http://purl.org/dc/dcmitype/StillImage" />
        <dc:title></dc:title>
      </cc:Work>
    </rdf:RDF>
  </metadata>
  <g
     id="layer1"
     inkscape:label="Layer 1"
     inkscape:groupmode="layer">
    <path
       sodipodi:type="arc"
       style="fill:url(#radialGradient5083);fill-opacity:1;fill-rule:nonzero;stroke:none"
       id="path2845"
       sodipodi:cx="32.363636"
       sodipodi:cy="31.727272"
       sodipodi:rx="26.90909"
       sodipodi:ry="25.90909"
       d="m 59.272726,31.727272 a 26.90909,25.90909 0 1 1 -53.81818,0 26.90909,25.90909 0 1 1 53.81818,0 z"
       transform="matrix(0.92905408,0,0,0.96491231,1.9324318,1.3859647)" />
  </g>
</svg>
